{
    "data" : [
		{"name": "Node1", "size": 13, "hex": "#4BB4E6","value": 1},
		{"name": "Node2", "size": 13, "hex": "#4BB4E6","value": 2},
		{"name": "Node3", "size": 13, "hex": "#4BB4E6","value": 3}	
    ],
    "positions" : [
		{"name": "Node1", "x": 1, "y": 2},
		{"name": "Node2", "x": 3, "y": 4},
		{"name": "Node3", "x": 5, "y": 6}
    ],
    "connections" : [
		{"source": "Node1", "target": "Node1"}
	]
}
